.....................
----------------------------------------------------------------------
Ran 21 tests in 0.258s

OK
Name             Stmts   Miss Branch BrPart  Cover   Missing
------------------------------------------------------------
Collatz.py          34      1     14      1    96%   148->149, 149
TestCollatz.py      88      0      0      0   100%
------------------------------------------------------------
TOTAL              122      1     14      1    99%